{"photos":{"page":1,"pages":28345,"perpage":9,"total":"255097","photo":[{"id":"25415135483","owner":"13931035@N03","secret":"412f289070","server":"1472","farm":2,"title":"Celebrating the pagan festival of 'Eostre' [new life] - Axemaniac-Art - IMGP9981","ispublic":1,"isfriend":0,"isfamily":0},{"id":"25991731646","owner":"131945596@N06","secret":"ef91423e3e","server":"1615","farm":2,"title":"Happy Easter images ecard","ispublic":1,"isfriend":0,"isfamily":0},{"id":"25951200541","owner":"82047484@N07","secret":"8f8a67f7e2","server":"1642","farm":2,"title":"Happy Easter!","ispublic":1,"isfriend":0,"isfamily":0},{"id":"26017561225","owner":"10758109@N04","secret":"e85c3e0787","server":"1672","farm":2,"title":"EGG-STACY!","ispublic":1,"isfriend":0,"isfamily":0},{"id":"26017559095","owner":"10758109@N04","secret":"228e1fcc1b","server":"1447","farm":2,"title":"What the! What is this Eggs-actly?","ispublic":1,"isfriend":0,"isfamily":0},{"id":"25950903341","owner":"115785168@N08","secret":"46e806bfe3","server":"1449","farm":2,"title":"New Moon - Half Moon - Full Moon - Easter Moon","ispublic":1,"isfriend":0,"isfamily":0},{"id":"25744443360","owner":"110470383@N07","secret":"8bee026889","server":"1487","farm":2,"title":"","ispublic":1,"isfriend":0,"isfamily":0},{"id":"25924431722","owner":"66547006@N06","secret":"c02fc1a289","server":"1582","farm":2,"title":"Shortest Cowboy in Texas 2","ispublic":1,"isfriend":0,"isfamily":0},{"id":"25414414743","owner":"74103707@N02","secret":"eb3c87fff4","server":"1458","farm":2,"title":"Run Easter Chicks The Big Bad Wolf","ispublic":1,"isfriend":0,"isfamily":0}]},"stat":"ok"}
